tek0000CH4.csv

Model,MDO3054
Firmware Version,1.30

Waveform Type,ANALOG
Point Format,Y
Horizontal Units,s
Horizontal Scale,0.0004
Horizontal Delay,1.6e-06
Sample Interval,4e-08
Record Length,100000
Gating,0.0% to 100.0%
Probe Attenuation,10
Vertical Units,A
Vertical Offset,0
Vertical Scale,0.02
Vertical Position,-3.98
,
,
,
Label,
TIME,CH4
-1.99840e-03,0.0764
-1.99836e-03,0.0716
-1.99832e-03,0.0772
-1.99828e-03,0.0716
-1.99824e-03,0.0764
-1.99820e-03,0.0764
-1.99816e-03,0.0772
-1.99812e-03,0.078
-1.99808e-03,0.078
-1.99804e-03,0.0772
-1.99800e-03,0.0796
-1.99796e-03,0.0788
-1.99792e-03,0.0764
-1.99788e-03,0.074
-1.99784e-03,0.0788
-1.99780e-03,0.078
-1.99776e-03,0.0764
-1.99772e-03,0.0836
-1.99768e-03,0.0788
-1.99764e-03,0.0828
-1.99760e-03,0.0796
-1.99756e-03,0.0764
-1.99752e-03,0.078
-1.99748e-03,0.0788
-1.99744e-03,0.0804
-1.99740e-03,0.0812
-1.99736e-03,0.0836
-1.99732e-03,0.0788
-1.99728e-03,0.0764
-1.99724e-03,0.0812
-1.99720e-03,0.0804
-1.99716e-03,0.0812
-1.99712e-03,0.0828
-1.99708e-03,0.0844
-1.99704e-03,0.078
-1.99700e-03,0.0796
-1.99696e-03,0.0828
-1.99692e-03,0.0836
-1.99688e-03,0.0836
-1.99684e-03,0.0804
-1.99680e-03,0.0844
-1.99676e-03,0.0788
-1.99672e-03,0.082
-1.99668e-03,0.0844
-1.99664e-03,0.0812
-1.99660e-03,0.0852
-1.99656e-03,0.0876
-1.99652e-03,0.0844
-1.99648e-03,0.0828
-1.99644e-03,0.0828
-1.99640e-03,0.0852
-1.99636e-03,0.0844
-1.99632e-03,0.0844
-1.99628e-03,0.0844
-1.99624e-03,0.0852
-1.99620e-03,0.082
-1.99616e-03,0.0756
-1.99612e-03,0.082
-1.99608e-03,0.0892
-1.99604e-03,0.086
-1.99600e-03,0.0844
-1.99596e-03,0.0844
-1.99592e-03,0.0868
-1.99588e-03,0.0804
-1.99584e-03,0.0844
-1.99580e-03,0.0908
-1.99576e-03,0.0844
-1.99572e-03,0.09
-1.99568e-03,0.0812
-1.99564e-03,0.0812
-1.99560e-03,0.0836
-1.99556e-03,0.082
-1.99552e-03,0.0812
-1.99548e-03,0.082
-1.99544e-03,0.0868
-1.99540e-03,0.0868
-1.99536e-03,0.0836
-1.99532e-03,0.082
-1.99528e-03,0.0828
-1.99524e-03,0.082
-1.99520e-03,0.0852
-1.99516e-03,0.086
-1.99512e-03,0.0804
-1.99508e-03,0.0828
-1.99504e-03,0.0876
-1.99500e-03,0.0868
-1.99496e-03,0.0828
-1.99492e-03,0.0844
-1.99488e-03,0.0852
-1.99484e-03,0.0828
-1.99480e-03,0.0828
-1.99476e-03,0.0804
-1.99472e-03,0.0812
-1.99468e-03,0.0828
-1.99464e-03,0.0796
-1.99460e-03,0.082
-1.99456e-03,0.0868
-1.99452e-03,0.0844
-1.99448e-03,0.0844
-1.99444e-03,0.0804
-1.99440e-03,0.082
-1.99436e-03,0.0812
-1.99432e-03,0.0796
-1.99428e-03,0.0796
-1.99424e-03,0.0788
-1.99420e-03,0.082
-1.99416e-03,0.0796
-1.99412e-03,0.0804
-1.99408e-03,0.0812
-1.99404e-03,0.0748
-1.99400e-03,0.0756
-1.99396e-03,0.0788
-1.99392e-03,0.0804
-1.99388e-03,0.0804
-1.99384e-03,0.0732
-1.99380e-03,0.082
-1.99376e-03,0.0804
-1.99372e-03,0.0828
-1.99368e-03,0.0796
-1.99364e-03,0.0788
-1.99360e-03,0.0788
-1.99356e-03,0.0764
-1.99352e-03,0.0772
-1.99348e-03,0.0772
-1.99344e-03,0.0772
-1.99340e-03,0.0772
-1.99336e-03,0.0772
-1.99332e-03,0.074
-1.99328e-03,0.0748
-1.99324e-03,0.0748
-1.99320e-03,0.0732
-1.99316e-03,0.0732
-1.99312e-03,0.0788
-1.99308e-03,0.074
-1.99304e-03,0.0772
-1.99300e-03,0.0788
-1.99296e-03,0.074
-1.99292e-03,0.0708
-1.99288e-03,0.0748
-1.99284e-03,0.0716
-1.99280e-03,0.0772
-1.99276e-03,0.0716
-1.99272e-03,0.0692
-1.99268e-03,0.0692
-1.99264e-03,0.0692
-1.99260e-03,0.074
-1.99256e-03,0.0756
-1.99252e-03,0.0764
-1.99248e-03,0.0748
-1.99244e-03,0.0692
-1.99240e-03,0.07
-1.99236e-03,0.0772
-1.99232e-03,0.0692
-1.99228e-03,0.07
-1.99224e-03,0.0748
-1.99220e-03,0.0772
-1.99216e-03,0.0716
-1.99212e-03,0.0684
-1.99208e-03,0.074
-1.99204e-03,0.0684
-1.99200e-03,0.0748
-1.99196e-03,0.0724
-1.99192e-03,0.0676
-1.99188e-03,0.0716
-1.99184e-03,0.0724
-1.99180e-03,0.0708
-1.99176e-03,0.0732
-1.99172e-03,0.0708
-1.99168e-03,0.0716
-1.99164e-03,0.0732
-1.99160e-03,0.0732
-1.99156e-03,0.0716
-1.99152e-03,0.07
-1.99148e-03,0.0748
-1.99144e-03,0.0732
-1.99140e-03,0.0708
-1.99136e-03,0.0676
-1.99132e-03,0.0692
-1.99128e-03,0.0716
-1.99124e-03,0.0708
-1.99120e-03,0.0684
-1.99116e-03,0.07
-1.99112e-03,0.0732
-1.99108e-03,0.0732
-1.99104e-03,0.07
-1.99100e-03,0.0708
-1.99096e-03,0.0668
-1.99092e-03,0.0684
-1.99088e-03,0.0708
-1.99084e-03,0.0692
-1.99080e-03,0.0684
-1.99076e-03,0.0716
-1.99072e-03,0.0684
-1.99068e-03,0.074
-1.99064e-03,0.07
-1.99060e-03,0.0708
-1.99056e-03,0.0684
-1.99052e-03,0.0748
-1.99048e-03,0.0724
-1.99044e-03,0.074
-1.99040e-03,0.0676
-1.99036e-03,0.0652
-1.99032e-03,0.0756
-1.99028e-03,0.0732
-1.99024e-03,0.0724
-1.99020e-03,0.0724
-1.99016e-03,0.0676
-1.99012e-03,0.0724
-1.99008e-03,0.0716
-1.99004e-03,0.0732
-1.99000e-03,0.0652
-1.98996e-03,0.0708
-1.98992e-03,0.0668
-1.98988e-03,0.0708
-1.98984e-03,0.0692
-1.98980e-03,0.0732
-1.98976e-03,0.0668
-1.98972e-03,0.0684
-1.98968e-03,0.0668
-1.98964e-03,0.0708
-1.98960e-03,0.0708
-1.98956e-03,0.0684
-1.98952e-03,0.0724
-1.98948e-03,0.0668
-1.98944e-03,0.07
-1.98940e-03,0.0676
-1.98936e-03,0.07
-1.98932e-03,0.0692
-1.98928e-03,0.0652
-1.98924e-03,0.07
-1.98920e-03,0.0684
-1.98916e-03,0.0708
-1.98912e-03,0.0668
-1.98908e-03,0.0692
-1.98904e-03,0.066
-1.98900e-03,0.0716
-1.98896e-03,0.0692
-1.98892e-03,0.07
-1.98888e-03,0.0708
-1.98884e-03,0.0708
-1.98880e-03,0.0644
-1.98876e-03,0.07
-1.98872e-03,0.0676
-1.98868e-03,0.0692
-1.98864e-03,0.0668
-1.98860e-03,0.0708
-1.98856e-03,0.07
-1.98852e-03,0.0716
-1.98848e-03,0.0708
-1.98844e-03,0.0692
-1.98840e-03,0.0732
-1.98836e-03,0.0636
-1.98832e-03,0.07
-1.98828e-03,0.0716
-1.98824e-03,0.0684
-1.98820e-03,0.0652
-1.98816e-03,0.0724
-1.98812e-03,0.066
-1.98808e-03,0.0676
-1.98804e-03,0.0692
-1.98800e-03,0.07
-1.98796e-03,0.0676
-1.98792e-03,0.0684
-1.98788e-03,0.0676
-1.98784e-03,0.0668
-1.98780e-03,0.0684
-1.98776e-03,0.0708
-1.98772e-03,0.0692
-1.98768e-03,0.0692
-1.98764e-03,0.066
-1.98760e-03,0.0652
-1.98756e-03,0.0724
-1.98752e-03,0.0708
-1.98748e-03,0.0652
-1.98744e-03,0.0708
-1.98740e-03,0.0628
-1.98736e-03,0.0692
-1.98732e-03,0.0676
-1.98728e-03,0.0644
-1.98724e-03,0.0652
-1.98720e-03,0.066
-1.98716e-03,0.0668
-1.98712e-03,0.0676
-1.98708e-03,0.0652
-1.98704e-03,0.0628
-1.98700e-03,0.0652
-1.98696e-03,0.0676
-1.98692e-03,0.0644
-1.98688e-03,0.0676
-1.98684e-03,0.066
-1.98680e-03,0.066
-1.98676e-03,0.0628
-1.98672e-03,0.0684
-1.98668e-03,0.0676
-1.98664e-03,0.0692
-1.98660e-03,0.0684
-1.98656e-03,0.066
-1.98652e-03,0.0644
-1.98648e-03,0.0692
-1.98644e-03,0.0652
-1.98640e-03,0.066
-1.98636e-03,0.0652
-1.98632e-03,0.0676
-1.98628e-03,0.0652
-1.98624e-03,0.0668
-1.98620e-03,0.0668
-1.98616e-03,0.0652
-1.98612e-03,0.0652
-1.98608e-03,0.0628
-1.98604e-03,0.0716
-1.98600e-03,0.0644
-1.98596e-03,0.0652
-1.98592e-03,0.0628
-1.98588e-03,0.0644
-1.98584e-03,0.0636
-1.98580e-03,0.066
-1.98576e-03,0.0652
-1.98572e-03,0.0636
-1.98568e-03,0.0644
-1.98564e-03,0.0676
-1.98560e-03,0.0668
-1.98556e-03,0.0644
-1.98552e-03,0.0644
-1.98548e-03,0.0628
-1.98544e-03,0.0628
-1.98540e-03,0.0596
-1.98536e-03,0.062
-1.98532e-03,0.0652
-1.98528e-03,0.066
-1.98524e-03,0.0644
-1.98520e-03,0.062
-1.98516e-03,0.0652
-1.98512e-03,0.0644
-1.98508e-03,0.066
-1.98504e-03,0.062
-1.98500e-03,0.0652
-1.98496e-03,0.0636
-1.98492e-03,0.0628
-1.98488e-03,0.066
-1.98484e-03,0.0628
-1.98480e-03,0.066
-1.98476e-03,0.0724
-1.98472e-03,0.0644
-1.98468e-03,0.0652
-1.98464e-03,0.07
-1.98460e-03,0.066
-1.98456e-03,0.0644
-1.98452e-03,0.0676
-1.98448e-03,0.0708
-1.98444e-03,0.0708
-1.98440e-03,0.0644
-1.98436e-03,0.0668
-1.98432e-03,0.0748
-1.98428e-03,0.0708
-1.98424e-03,0.0708
-1.98420e-03,0.0708
-1.98416e-03,0.0716
-1.98412e-03,0.0724
-1.98408e-03,0.0716
-1.98404e-03,0.0756
-1.98400e-03,0.0684
-1.98396e-03,0.0748
-1.98392e-03,0.0692
-1.98388e-03,0.0732
-1.98384e-03,0.074
-1.98380e-03,0.078
-1.98376e-03,0.0748
-1.98372e-03,0.078
-1.98368e-03,0.0772
-1.98364e-03,0.0756
-1.98360e-03,0.0756
-1.98356e-03,0.0764
-1.98352e-03,0.0756
-1.98348e-03,0.0772
-1.98344e-03,0.0788
-1.98340e-03,0.0772
-1.98336e-03,0.0772
-1.98332e-03,0.0748
-1.98328e-03,0.0796
-1.98324e-03,0.0796
-1.98320e-03,0.0804
-1.98316e-03,0.0772
-1.98312e-03,0.078
-1.98308e-03,0.0788
-1.98304e-03,0.0788
-1.98300e-03,0.0788
-1.98296e-03,0.0796
-1.98292e-03,0.078
-1.98288e-03,0.0788
-1.98284e-03,0.0796
-1.98280e-03,0.0788
-1.98276e-03,0.0804
-1.98272e-03,0.0804
-1.98268e-03,0.0852
-1.98264e-03,0.0836
-1.98260e-03,0.0844
-1.98256e-03,0.0812
-1.98252e-03,0.0828
-1.98248e-03,0.0852
-1.98244e-03,0.0852
-1.98240e-03,0.0796
-1.98236e-03,0.0812
-1.98232e-03,0.086
-1.98228e-03,0.0844
-1.98224e-03,0.0844
-1.98220e-03,0.0844
-1.98216e-03,0.0828
-1.98212e-03,0.0876
-1.98208e-03,0.082
-1.98204e-03,0.082
-1.98200e-03,0.0788
-1.98196e-03,0.078
-1.98192e-03,0.0812
-1.98188e-03,0.0828
-1.98184e-03,0.0828
-1.98180e-03,0.0812
-1.98176e-03,0.0804
-1.98172e-03,0.0828
-1.98168e-03,0.0812
-1.98164e-03,0.0788
-1.98160e-03,0.0828
-1.98156e-03,0.0796
-1.98152e-03,0.0812
-1.98148e-03,0.0748
-1.98144e-03,0.0796
-1.98140e-03,0.082
-1.98136e-03,0.0796
-1.98132e-03,0.0796
-1.98128e-03,0.078
-1.98124e-03,0.0828
-1.98120e-03,0.0772
-1.98116e-03,0.0796
-1.98112e-03,0.0772
-1.98108e-03,0.0764
-1.98104e-03,0.0788
-1.98100e-03,0.0788
-1.98096e-03,0.078
-1.98092e-03,0.0764
-1.98088e-03,0.078
-1.98084e-03,0.0732
-1.98080e-03,0.074
-1.98076e-03,0.078
-1.98072e-03,0.074
-1.98068e-03,0.0772
-1.98064e-03,0.0772
-1.98060e-03,0.0788
-1.98056e-03,0.0756
-1.98052e-03,0.074
-1.98048e-03,0.0764
-1.98044e-03,0.074
-1.98040e-03,0.0772
-1.98036e-03,0.0724
-1.98032e-03,0.0716
-1.98028e-03,0.074
-1.98024e-03,0.0732
-1.98020e-03,0.0764
-1.98016e-03,0.0732
-1.98012e-03,0.0668
-1.98008e-03,0.0716
-1.98004e-03,0.0732
-1.98000e-03,0.0708
-1.97996e-03,0.0684
-1.97992e-03,0.0772
-1.97988e-03,0.0644
-1.97984e-03,0.0732
-1.97980e-03,0.0708
-1.97976e-03,0.0748
-1.97972e-03,0.0732
-1.97968e-03,0.0692
-1.97964e-03,0.0708
-1.97960e-03,0.0684
-1.97956e-03,0.0732
-1.97952e-03,0.0652
-1.97948e-03,0.0692
-1.97944e-03,0.0676
-1.97940e-03,0.0684
-1.97936e-03,0.0692
-1.97932e-03,0.07
-1.97928e-03,0.0676
-1.97924e-03,0.0708
-1.97920e-03,0.0692
-1.97916e-03,0.0644
-1.97912e-03,0.0668
-1.97908e-03,0.0652
-1.97904e-03,0.0676
-1.97900e-03,0.0684
-1.97896e-03,0.0668
-1.97892e-03,0.0636
-1.97888e-03,0.0684
-1.97884e-03,0.0692
-1.97880e-03,0.0628
-1.97876e-03,0.0644
-1.97872e-03,0.0708
-1.97868e-03,0.0668
-1.97864e-03,0.07
-1.97860e-03,0.0652
-1.97856e-03,0.0668
-1.97852e-03,0.0652
-1.97848e-03,0.0644
-1.97844e-03,0.066
-1.97840e-03,0.0676
-1.97836e-03,0.0644
-1.97832e-03,0.066
-1.97828e-03,0.0708
-1.97824e-03,0.0684
-1.97820e-03,0.0716
-1.97816e-03,0.0668
-1.97812e-03,0.0692
-1.97808e-03,0.0652
-1.97804e-03,0.0652
-1.97800e-03,0.0692
-1.97796e-03,0.0724
-1.97792e-03,0.0668
-1.97788e-03,0.07
-1.97784e-03,0.0692
-1.97780e-03,0.0684
-1.97776e-03,0.0732
-1.97772e-03,0.0676
-1.97768e-03,0.0644
-1.97764e-03,0.0732
-1.97760e-03,0.0716
-1.97756e-03,0.0708
-1.97752e-03,0.066
-1.97748e-03,0.0708
-1.97744e-03,0.0684
-1.97740e-03,0.0708
-1.97736e-03,0.0716
-1.97732e-03,0.07
-1.97728e-03,0.0724
-1.97724e-03,0.07
-1.97720e-03,0.07
-1.97716e-03,0.0732
-1.97712e-03,0.0676
-1.97708e-03,0.0684
-1.97704e-03,0.0716
-1.97700e-03,0.0692
-1.97696e-03,0.0684
-1.97692e-03,0.0724
-1.97688e-03,0.0748
-1.97684e-03,0.0708
-1.97680e-03,0.074
-1.97676e-03,0.0684
-1.97672e-03,0.0732
-1.97668e-03,0.07
-1.97664e-03,0.0692
-1.97660e-03,0.0764
-1.97656e-03,0.0732
-1.97652e-03,0.0716
-1.97648e-03,0.074
-1.97644e-03,0.074
-1.97640e-03,0.078
-1.97636e-03,0.074
-1.97632e-03,0.0764
-1.97628e-03,0.0788
-1.97624e-03,0.0748
-1.97620e-03,0.0748
-1.97616e-03,0.0772
-1.97612e-03,0.078
-1.97608e-03,0.0724
-1.97604e-03,0.0796
-1.97600e-03,0.0756
-1.97596e-03,0.0772
-1.97592e-03,0.078
-1.97588e-03,0.0772
-1.97584e-03,0.0772
-1.97580e-03,0.074
-1.97576e-03,0.0788
-1.97572e-03,0.0788
-1.97568e-03,0.0788
-1.97564e-03,0.0772
-1.97560e-03,0.0804
-1.97556e-03,0.0748
-1.97552e-03,0.0772
-1.97548e-03,0.0748
-1.97544e-03,0.0732
-1.97540e-03,0.0812
-1.97536e-03,0.0772
-1.97532e-03,0.0796
-1.97528e-03,0.0756
-1.97524e-03,0.074
-1.97520e-03,0.0804
-1.97516e-03,0.0772
-1.97512e-03,0.0796
-1.97508e-03,0.0812
-1.97504e-03,0.0756
-1.97500e-03,0.0748
-1.97496e-03,0.0764
-1.97492e-03,0.0796
-1.97488e-03,0.0772
-1.97484e-03,0.0788
-1.97480e-03,0.0828
-1.97476e-03,0.0828
-1.97472e-03,0.0812
-1.97468e-03,0.0828
-1.97464e-03,0.0788
-1.97460e-03,0.0796
-1.97456e-03,0.0812
-1.97452e-03,0.0796
-1.97448e-03,0.0812
-1.97444e-03,0.0828
-1.97440e-03,0.0812
-1.97436e-03,0.0844
-1.97432e-03,0.082
-1.97428e-03,0.0828
-1.97424e-03,0.082
-1.97420e-03,0.0828
-1.97416e-03,0.0796
-1.97412e-03,0.0788
-1.97408e-03,0.0796
-1.97404e-03,0.0804
-1.97400e-03,0.0836
-1.97396e-03,0.0828
-1.97392e-03,0.0812
-1.97388e-03,0.0852
-1.97384e-03,0.0812
-1.97380e-03,0.0828
-1.97376e-03,0.0796
-1.97372e-03,0.0796
-1.97368e-03,0.082
-1.97364e-03,0.082
-1.97360e-03,0.086
-1.97356e-03,0.0796
-1.97352e-03,0.078
-1.97348e-03,0.082
-1.97344e-03,0.0828
-1.97340e-03,0.0836
-1.97336e-03,0.078
-1.97332e-03,0.0796
-1.97328e-03,0.078
-1.97324e-03,0.0796
-1.97320e-03,0.0804
-1.97316e-03,0.0812
-1.97312e-03,0.0788
-1.97308e-03,0.0804
-1.97304e-03,0.082
-1.97300e-03,0.0828
-1.97296e-03,0.0772
-1.97292e-03,0.0788
-1.97288e-03,0.0796
-1.97284e-03,0.0812
-1.97280e-03,0.0788
-1.97276e-03,0.0796
-1.97272e-03,0.0804
-1.97268e-03,0.082
-1.97264e-03,0.078
-1.97260e-03,0.0748
-1.97256e-03,0.0796
-1.97252e-03,0.074
-1.97248e-03,0.0772
-1.97244e-03,0.0764
-1.97240e-03,0.0828
-1.97236e-03,0.0796
-1.97232e-03,0.0764
-1.97228e-03,0.0788
-1.97224e-03,0.0788
-1.97220e-03,0.0748
-1.97216e-03,0.0764
-1.97212e-03,0.0732
-1.97208e-03,0.0804
-1.97204e-03,0.0748
-1.97200e-03,0.0772
-1.97196e-03,0.078
-1.97192e-03,0.0788
-1.97188e-03,0.0788
-1.97184e-03,0.0788
-1.97180e-03,0.0748
-1.97176e-03,0.074
-1.97172e-03,0.0748
-1.97168e-03,0.0772
-1.97164e-03,0.0724
-1.97160e-03,0.0748
-1.97156e-03,0.0732
-1.97152e-03,0.0748
-1.97148e-03,0.078
-1.97144e-03,0.0748
-1.97140e-03,0.0732
-1.97136e-03,0.0788
-1.97132e-03,0.0748
-1.97128e-03,0.0748
-1.97124e-03,0.0772
-1.97120e-03,0.0756
-1.97116e-03,0.0724
-1.97112e-03,0.0724
-1.97108e-03,0.074
-1.97104e-03,0.0756
-1.97100e-03,0.0748
-1.97096e-03,0.0724
-1.97092e-03,0.078
-1.97088e-03,0.0788
-1.97084e-03,0.0756
-1.97080e-03,0.0732
-1.97076e-03,0.0716
-1.97072e-03,0.074
-1.97068e-03,0.07
-1.97064e-03,0.074
-1.97060e-03,0.0788
-1.97056e-03,0.0756
-1.97052e-03,0.0748
-1.97048e-03,0.0732
-1.97044e-03,0.0732
-1.97040e-03,0.0764
-1.97036e-03,0.0716
-1.97032e-03,0.0692
-1.97028e-03,0.0764
-1.97024e-03,0.0716
-1.97020e-03,0.0748
-1.97016e-03,0.074
-1.97012e-03,0.0652
-1.97008e-03,0.0756
-1.97004e-03,0.0764
-1.97000e-03,0.0716
-1.96996e-03,0.0756
-1.96992e-03,0.0668
-1.96988e-03,0.0692
-1.96984e-03,0.0676
-1.96980e-03,0.07
-1.96976e-03,0.0716
-1.96972e-03,0.0732
-1.96968e-03,0.0676
-1.96964e-03,0.0716
-1.96960e-03,0.0716
-1.96956e-03,0.0716
-1.96952e-03,0.0724
-1.96948e-03,0.0652
-1.96944e-03,0.0708
-1.96940e-03,0.07
-1.96936e-03,0.066
-1.96932e-03,0.0732
-1.96928e-03,0.0708
-1.96924e-03,0.074
-1.96920e-03,0.07
-1.96916e-03,0.0684
-1.96912e-03,0.0716
-1.96908e-03,0.0732
-1.96904e-03,0.0716
-1.96900e-03,0.0756
-1.96896e-03,0.0708
-1.96892e-03,0.0708
-1.96888e-03,0.0724
-1.96884e-03,0.0708
-1.96880e-03,0.0708
-1.96876e-03,0.0732
-1.96872e-03,0.0692
-1.96868e-03,0.0708
-1.96864e-03,0.07
-1.96860e-03,0.0756
-1.96856e-03,0.0676
-1.96852e-03,0.0692
-1.96848e-03,0.0676
-1.96844e-03,0.0724
-1.96840e-03,0.0676
-1.96836e-03,0.074
-1.96832e-03,0.0708
-1.96828e-03,0.0692
-1.96824e-03,0.0716
-1.96820e-03,0.0676
-1.96816e-03,0.0708
-1.96812e-03,0.0724
-1.96808e-03,0.0676
-1.96804e-03,0.0732
-1.96800e-03,0.0692
-1.96796e-03,0.074
-1.96792e-03,0.0684
-1.96788e-03,0.0716
-1.96784e-03,0.0684
-1.96780e-03,0.074
-1.96776e-03,0.0716
-1.96772e-03,0.0708
-1.96768e-03,0.074
-1.96764e-03,0.0708
-1.96760e-03,0.0652
-1.96756e-03,0.0668
-1.96752e-03,0.074
-1.96748e-03,0.07
-1.96744e-03,0.0748
-1.96740e-03,0.0684
-1.96736e-03,0.0708
-1.96732e-03,0.0724
-1.96728e-03,0.07
-1.96724e-03,0.07
-1.96720e-03,0.07
-1.96716e-03,0.0724
-1.96712e-03,0.0716
-1.96708e-03,0.0684
-1.96704e-03,0.0708
-1.96700e-03,0.074
-1.96696e-03,0.0748
-1.96692e-03,0.0724
-1.96688e-03,0.0692
-1.96684e-03,0.07
-1.96680e-03,0.0676
-1.96676e-03,0.0732
-1.96672e-03,0.0636
-1.96668e-03,0.0676
-1.96664e-03,0.07
-1.96660e-03,0.0716
-1.96656e-03,0.0684
-1.96652e-03,0.0716
-1.96648e-03,0.0684
-1.96644e-03,0.0708
-1.96640e-03,0.0708
-1.96636e-03,0.07
-1.96632e-03,0.0732
-1.96628e-03,0.07
-1.96624e-03,0.0724
-1.96620e-03,0.0668
-1.96616e-03,0.07
-1.96612e-03,0.0652
-1.96608e-03,0.0684
-1.96604e-03,0.0716
-1.96600e-03,0.0716
-1.96596e-03,0.0692
-1.96592e-03,0.0692
-1.96588e-03,0.0668
-1.96584e-03,0.0724
-1.96580e-03,0.0692
-1.96576e-03,0.07
-1.96572e-03,0.0652
-1.96568e-03,0.07
-1.96564e-03,0.0684
-1.96560e-03,0.0676
-1.96556e-03,0.0668
-1.96552e-03,0.0676
-1.96548e-03,0.07
-1.96544e-03,0.0668
-1.96540e-03,0.0676
-1.96536e-03,0.0708
-1.96532e-03,0.0668
-1.96528e-03,0.0652
-1.96524e-03,0.0652
-1.96520e-03,0.07
-1.96516e-03,0.0652
-1.96512e-03,0.0676
-1.96508e-03,0.0652
-1.96504e-03,0.066
-1.96500e-03,0.0684
-1.96496e-03,0.0684
-1.96492e-03,0.0628
-1.96488e-03,0.0644
-1.96484e-03,0.0676
-1.96480e-03,0.066
-1.96476e-03,0.0652
-1.96472e-03,0.07
-1.96468e-03,0.0652
-1.96464e-03,0.066
-1.96460e-03,0.066
-1.96456e-03,0.0676
-1.96452e-03,0.0628
-1.96448e-03,0.0676
-1.96444e-03,0.0668
-1.96440e-03,0.066
-1.96436e-03,0.0644
-1.96432e-03,0.0668
-1.96428e-03,0.0692
-1.96424e-03,0.0716
-1.96420e-03,0.0644
-1.96416e-03,0.07
-1.96412e-03,0.0684
-1.96408e-03,0.0684
-1.96404e-03,0.0644
-1.96400e-03,0.0628
-1.96396e-03,0.0604
-1.96392e-03,0.0692
-1.96388e-03,0.066
-1.96384e-03,0.0636
-1.96380e-03,0.0644
-1.96376e-03,0.062
-1.96372e-03,0.0668
-1.96368e-03,0.0652
-1.96364e-03,0.0628
-1.96360e-03,0.0628
-1.96356e-03,0.0628
-1.96352e-03,0.066
-1.96348e-03,0.0612
-1.96344e-03,0.0668
-1.96340e-03,0.0676
-1.96336e-03,0.0644
-1.96332e-03,0.0652
-1.96328e-03,0.0652
-1.96324e-03,0.0668
-1.96320e-03,0.062
-1.96316e-03,0.0612
-1.96312e-03,0.0644
-1.96308e-03,0.0612
-1.96304e-03,0.0652
-1.96300e-03,0.066
-1.96296e-03,0.0668
-1.96292e-03,0.0596
-1.96288e-03,0.0604
-1.96284e-03,0.0652
-1.96280e-03,0.062
-1.96276e-03,0.0668
-1.96272e-03,0.0636
-1.96268e-03,0.062
-1.96264e-03,0.0604
-1.96260e-03,0.062
-1.96256e-03,0.0612
-1.96252e-03,0.0644
-1.96248e-03,0.0612
-1.96244e-03,0.0588
-1.96240e-03,0.0604
-1.96236e-03,0.0612
-1.96232e-03,0.0628
-1.96228e-03,0.0636
-1.96224e-03,0.0644
-1.96220e-03,0.066
-1.96216e-03,0.0628
-1.96212e-03,0.0652
-1.96208e-03,0.062
-1.96204e-03,0.0604
-1.96200e-03,0.066
-1.96196e-03,0.0644
-1.96192e-03,0.07
-1.96188e-03,0.07
-1.96184e-03,0.0716
-1.96180e-03,0.0724
-1.96176e-03,0.066
-1.96172e-03,0.0716
-1.96168e-03,0.0708
-1.96164e-03,0.0732
-1.96160e-03,0.0716
-1.96156e-03,0.0668
-1.96152e-03,0.0676
-1.96148e-03,0.0724
-1.96144e-03,0.0684
-1.96140e-03,0.0716
-1.96136e-03,0.074
-1.96132e-03,0.0724
-1.96128e-03,0.074
-1.96124e-03,0.0708
-1.96120e-03,0.0716
-1.96116e-03,0.0716
-1.96112e-03,0.074
-1.96108e-03,0.0724
-1.96104e-03,0.074
-1.96100e-03,0.0756
-1.96096e-03,0.0724
-1.96092e-03,0.0748
-1.96088e-03,0.0756
-1.96084e-03,0.0756
-1.96080e-03,0.0756
-1.96076e-03,0.0764
-1.96072e-03,0.0756
-1.96068e-03,0.0788
-1.96064e-03,0.0796
-1.96060e-03,0.0772
-1.96056e-03,0.0764
-1.96052e-03,0.0764
-1.96048e-03,0.0756
-1.96044e-03,0.0764
-1.96040e-03,0.0796
-1.96036e-03,0.0788
-1.96032e-03,0.0812
-1.96028e-03,0.0772
-1.96024e-03,0.0788
-1.96020e-03,0.0764
-1.96016e-03,0.0748
-1.96012e-03,0.0772
-1.96008e-03,0.0788
-1.96004e-03,0.0804
-1.96000e-03,0.0844
-1.95996e-03,0.0804
-1.95992e-03,0.0788
-1.95988e-03,0.0836
-1.95984e-03,0.0796
-1.95980e-03,0.0788
-1.95976e-03,0.0756
-1.95972e-03,0.0788
-1.95968e-03,0.0788
-1.95964e-03,0.0812
-1.95960e-03,0.082
-1.95956e-03,0.0804
-1.95952e-03,0.0812
-1.95948e-03,0.0828
-1.95944e-03,0.0844
-1.95940e-03,0.0804
-1.95936e-03,0.0788
-1.95932e-03,0.0764
-1.95928e-03,0.0764
-1.95924e-03,0.0804
-1.95920e-03,0.0772
-1.95916e-03,0.0772
-1.95912e-03,0.0756
-1.95908e-03,0.0764
-1.95904e-03,0.0788
-1.95900e-03,0.0796
-1.95896e-03,0.0804
-1.95892e-03,0.0772
-1.95888e-03,0.0772
-1.95884e-03,0.0804
-1.95880e-03,0.0764
-1.95876e-03,0.0724
-1.95872e-03,0.0764
-1.95868e-03,0.0772
